tb_waveform.vcd
$version Generated by VerilatedVcd $end
$timescale 1ns $end
 $scope module TOP $end
  $scope module testbench $end
   $var wire 1 B clk $end
   $var wire 1 C rst_n $end
   $var wire 8 D ui_in [7:0] $end
   $var wire 8 E uio [7:0] $end
   $var wire 8 # uo_out [7:0] $end
   $scope module MatrixMath $end
    $var wire 1 B clk $end
    $var wire 1 C rst_n $end
    $var wire 8 D ui_in [7:0] $end
    $var wire 8 # uo_out [7:0] $end
    $var wire 8 E uio [7:0] $end
    $var wire 8 $ OP_REGS [7:0] $end
    $var wire 8 % Ain [7:0] $end
    $var wire 8 & Bin [7:0] $end
    $var wire 8 # State_out [7:0] $end
    $var wire 8 E Cinout [7:0] $end
    $var wire 8 ' MatrixA[0][0] [7:0] $end
    $var wire 8 ( MatrixA[0][1] [7:0] $end
    $var wire 8 ) MatrixA[0][2] [7:0] $end
    $var wire 8 * MatrixA[1][0] [7:0] $end
    $var wire 8 + MatrixA[1][1] [7:0] $end
    $var wire 8 , MatrixA[1][2] [7:0] $end
    $var wire 8 - MatrixA[2][0] [7:0] $end
    $var wire 8 . MatrixA[2][1] [7:0] $end
    $var wire 8 / MatrixA[2][2] [7:0] $end
    $var wire 8 0 MatrixB[0][0] [7:0] $end
    $var wire 8 1 MatrixB[0][1] [7:0] $end
    $var wire 8 2 MatrixB[0][2] [7:0] $end
    $var wire 8 3 MatrixB[1][0] [7:0] $end
    $var wire 8 4 MatrixB[1][1] [7:0] $end
    $var wire 8 5 MatrixB[1][2] [7:0] $end
    $var wire 8 6 MatrixB[2][0] [7:0] $end
    $var wire 8 7 MatrixB[2][1] [7:0] $end
    $var wire 8 8 MatrixB[2][2] [7:0] $end
    $var wire 8 9 MatrixC[0][0] [7:0] $end
    $var wire 8 : MatrixC[0][1] [7:0] $end
    $var wire 8 ; MatrixC[0][2] [7:0] $end
    $var wire 8 < MatrixC[1][0] [7:0] $end
    $var wire 8 = MatrixC[1][1] [7:0] $end
    $var wire 8 > MatrixC[1][2] [7:0] $end
    $var wire 8 ? MatrixC[2][0] [7:0] $end
    $var wire 8 @ MatrixC[2][1] [7:0] $end
    $var wire 8 A MatrixC[2][2] [7:0] $end
    $var wire 1 F reset $end
   $upscope $end
  $upscope $end
 $upscope $end
$enddefinitions $end


#0
b00000000 #
b00000000 $
b00000000 %
b00000000 &
b00000000 '
b00000000 (
b00000000 )
b00000000 *
b00000000 +
b00000000 ,
b00000000 -
b00000000 .
b00000000 /
b00000000 0
b00000000 1
b00000000 2
b00000000 3
b00000000 4
b00000000 5
b00000000 6
b00000000 7
b00000000 8
b00000000 9
b00000000 :
b00000000 ;
b00000000 <
b00000000 =
b00000000 >
b00000000 ?
b00000000 @
b00000000 A
0B
0C
b00000000 D
b00000000 E
1F
#1
1C
0F
#3
b11111111 D
#5
b10111011 $
1B
#10
0B
#13
#15
b10111011 #
b10101010 $
1B
#20
0B
#25
b10101010 #
1B
#30
0B
#35
1B
#40
0B
#45
1B
#50
0B
#55
1B
#60
0B
#65
1B
#70
0B
#75
1B
#80
0B
#85
1B
#90
0B
#95
1B
#100
0B
#105
1B
#110
0B
#115
1B
#120
0B
#125
1B
#130
0B
#135
1B
#140
0B
#145
1B
#150
0B
#155
1B
#160
0B
#165
1B
#170
0B
#175
1B
#180
0B
#185
1B
#190
0B
#195
1B
#200
0B
#205
1B
#210
0B
#215
1B
#220
0B
#225
1B
#230
0B
#235
1B
#240
0B
#245
1B
#250
0B
#255
1B
#260
0B
#265
1B
#270
0B
#275
1B
#280
0B
#285
1B
#290
0B
#295
1B
#300
0B
#305
1B
#310
0B
#315
1B
#320
0B
#325
1B
#330
0B
#335
1B
#340
0B
#345
1B
#350
0B
#355
1B
#360
0B
#365
1B
#370
0B
#375
1B
#380
0B
#385
1B
#390
0B
#395
1B
#400
0B
#405
1B
#410
0B
#415
1B
#420
0B
#425
1B
#430
0B
#435
1B
#440
0B
#445
1B
#450
0B
#455
1B
#460
0B
#465
1B
#470
0B
#475
1B
#480
0B
#485
1B
#490
0B
#495
1B
#500
0B
#505
1B
#510
0B
#513
b11001010 E
#515
b11001010 $
1B
#520
0B
#525
b11001010 #
b11111111 %
1B
#530
0B
#535
b11111111 '
b11111111 (
b11111111 )
b11111111 *
b11111111 +
b11111111 ,
b11111111 -
b11111111 .
b11111111 /
1B
