tb_waveform.vcd
$version Generated by VerilatedVcd $end
$timescale 1ns $end
 $scope module TOP $end
  $scope module testbench $end
   $var wire 1 d clk $end
   $var wire 1 e rst_n $end
   $var wire 8 f ui_in [7:0] $end
   $var wire 8 g uio_in [7:0] $end
   $var wire 8 # uo_out [7:0] $end
   $scope module MatrixMath $end
    $var wire 1 d clk $end
    $var wire 1 e rst_n $end
    $var wire 8 f ui_in [7:0] $end
    $var wire 8 g uio_in [7:0] $end
    $var wire 8 # uo_out [7:0] $end
    $var wire 8 i RESET_REG [7:0] $end
    $var wire 8 j IDLE_REG [7:0] $end
    $var wire 8 k LOAD_REGA_00 [7:0] $end
    $var wire 8 l LOAD_REGA_01 [7:0] $end
    $var wire 8 m LOAD_REGA_02 [7:0] $end
    $var wire 8 n LOAD_REGA_10 [7:0] $end
    $var wire 8 o LOAD_REGA_11 [7:0] $end
    $var wire 8 p LOAD_REGA_12 [7:0] $end
    $var wire 8 q LOAD_REGA_20 [7:0] $end
    $var wire 8 r LOAD_REGA_21 [7:0] $end
    $var wire 8 s LOAD_REGA_22 [7:0] $end
    $var wire 8 t LOAD_REGB_00 [7:0] $end
    $var wire 8 u LOAD_REGB_01 [7:0] $end
    $var wire 8 v LOAD_REGB_02 [7:0] $end
    $var wire 8 w LOAD_REGB_10 [7:0] $end
    $var wire 8 x LOAD_REGB_11 [7:0] $end
    $var wire 8 y LOAD_REGB_12 [7:0] $end
    $var wire 8 z LOAD_REGB_20 [7:0] $end
    $var wire 8 { LOAD_REGB_21 [7:0] $end
    $var wire 8 | LOAD_REGB_22 [7:0] $end
    $var wire 8 } OPERATE_REG_ADD_C00 [7:0] $end
    $var wire 8 ~ OPERATE_REG_ADD_C01 [7:0] $end
    $var wire 8 !! OPERATE_REG_ADD_C02 [7:0] $end
    $var wire 8 "! OPERATE_REG_ADD_C10 [7:0] $end
    $var wire 8 #! OPERATE_REG_ADD_C11 [7:0] $end
    $var wire 8 $! OPERATE_REG_ADD_C12 [7:0] $end
    $var wire 8 %! OPERATE_REG_ADD_C20 [7:0] $end
    $var wire 8 &! OPERATE_REG_ADD_C21 [7:0] $end
    $var wire 8 '! OPERATE_REG_ADD_C22 [7:0] $end
    $var wire 8 (! READ_RESULT_MATC00 [7:0] $end
    $var wire 8 )! READ_RESULT_MATC01 [7:0] $end
    $var wire 8 *! READ_RESULT_MATC02 [7:0] $end
    $var wire 8 +! READ_RESULT_MATC10 [7:0] $end
    $var wire 8 ,! READ_RESULT_MATC11 [7:0] $end
    $var wire 8 -! READ_RESULT_MATC12 [7:0] $end
    $var wire 8 .! READ_RESULT_MATC20 [7:0] $end
    $var wire 8 /! READ_RESULT_MATC21 [7:0] $end
    $var wire 8 0! READ_RESULT_MATC22 [7:0] $end
    $var wire 8 1! READ_ERROR [7:0] $end
    $var wire 8 2! ERROR [7:0] $end
    $var wire 8 $ OP_REGS [7:0] $end
    $var wire 8 3! NO_ERROR [7:0] $end
    $var wire 8 k CARRY_OVER_C00 [7:0] $end
    $var wire 8 l CARRY_OVER_C01 [7:0] $end
    $var wire 8 m CARRY_OVER_C02 [7:0] $end
    $var wire 8 n CARRY_OVER_C10 [7:0] $end
    $var wire 8 o CARRY_OVER_C11 [7:0] $end
    $var wire 8 p CARRY_OVER_C12 [7:0] $end
    $var wire 8 q CARRY_OVER_C20 [7:0] $end
    $var wire 8 r CARRY_OVER_C21 [7:0] $end
    $var wire 8 s CARRY_OVER_C22 [7:0] $end
    $var wire 8 2! ERROR_MATC [7:0] $end
    $var wire 8 % MATC_ERROR [7:0] $end
    $var wire 8 & Ain [7:0] $end
    $var wire 8 ' Bin [7:0] $end
    $var wire 8 # State_out [7:0] $end
    $var wire 8 ( OP_ERROR [7:0] $end
    $var wire 8 ) state_op [7:0] $end
    $var wire 8 * MatrixA[0][0] [7:0] $end
    $var wire 8 + MatrixA[0][1] [7:0] $end
    $var wire 8 , MatrixA[0][2] [7:0] $end
    $var wire 8 - MatrixA[1][0] [7:0] $end
    $var wire 8 . MatrixA[1][1] [7:0] $end
    $var wire 8 / MatrixA[1][2] [7:0] $end
    $var wire 8 0 MatrixA[2][0] [7:0] $end
    $var wire 8 1 MatrixA[2][1] [7:0] $end
    $var wire 8 2 MatrixA[2][2] [7:0] $end
    $var wire 8 3 MatrixB[0][0] [7:0] $end
    $var wire 8 4 MatrixB[0][1] [7:0] $end
    $var wire 8 5 MatrixB[0][2] [7:0] $end
    $var wire 8 6 MatrixB[1][0] [7:0] $end
    $var wire 8 7 MatrixB[1][1] [7:0] $end
    $var wire 8 8 MatrixB[1][2] [7:0] $end
    $var wire 8 9 MatrixB[2][0] [7:0] $end
    $var wire 8 : MatrixB[2][1] [7:0] $end
    $var wire 8 ; MatrixB[2][2] [7:0] $end
    $var wire 8 < MatrixC[0][0] [7:0] $end
    $var wire 8 = MatrixC[0][1] [7:0] $end
    $var wire 8 > MatrixC[0][2] [7:0] $end
    $var wire 8 ? MatrixC[1][0] [7:0] $end
    $var wire 8 @ MatrixC[1][1] [7:0] $end
    $var wire 8 A MatrixC[1][2] [7:0] $end
    $var wire 8 B MatrixC[2][0] [7:0] $end
    $var wire 8 C MatrixC[2][1] [7:0] $end
    $var wire 8 D MatrixC[2][2] [7:0] $end
    $var wire 8 E Mat_Ouput [7:0] $end
    $var wire 1 h reset $end
    $scope module MatrixOps $end
     $var wire 1 d clk $end
     $var wire 1 e rst_n $end
     $var wire 8 # State_in [7:0] $end
     $var wire 8 * MatrixA[0][0] [7:0] $end
     $var wire 8 + MatrixA[0][1] [7:0] $end
     $var wire 8 , MatrixA[0][2] [7:0] $end
     $var wire 8 - MatrixA[1][0] [7:0] $end
     $var wire 8 . MatrixA[1][1] [7:0] $end
     $var wire 8 / MatrixA[1][2] [7:0] $end
     $var wire 8 0 MatrixA[2][0] [7:0] $end
     $var wire 8 1 MatrixA[2][1] [7:0] $end
     $var wire 8 2 MatrixA[2][2] [7:0] $end
     $var wire 8 3 MatrixB[0][0] [7:0] $end
     $var wire 8 4 MatrixB[0][1] [7:0] $end
     $var wire 8 5 MatrixB[0][2] [7:0] $end
     $var wire 8 6 MatrixB[1][0] [7:0] $end
     $var wire 8 7 MatrixB[1][1] [7:0] $end
     $var wire 8 8 MatrixB[1][2] [7:0] $end
     $var wire 8 9 MatrixB[2][0] [7:0] $end
     $var wire 8 : MatrixB[2][1] [7:0] $end
     $var wire 8 ; MatrixB[2][2] [7:0] $end
     $var wire 8 < MatrixC[0][0] [7:0] $end
     $var wire 8 = MatrixC[0][1] [7:0] $end
     $var wire 8 > MatrixC[0][2] [7:0] $end
     $var wire 8 ? MatrixC[1][0] [7:0] $end
     $var wire 8 @ MatrixC[1][1] [7:0] $end
     $var wire 8 A MatrixC[1][2] [7:0] $end
     $var wire 8 B MatrixC[2][0] [7:0] $end
     $var wire 8 C MatrixC[2][1] [7:0] $end
     $var wire 8 D MatrixC[2][2] [7:0] $end
     $var wire 8 ( OutOfBounds [7:0] $end
     $var wire 8 i RESET_REG [7:0] $end
     $var wire 8 j IDLE_REG [7:0] $end
     $var wire 8 } OPERATE_REG_ADD_C00 [7:0] $end
     $var wire 8 ~ OPERATE_REG_ADD_C01 [7:0] $end
     $var wire 8 !! OPERATE_REG_ADD_C02 [7:0] $end
     $var wire 8 "! OPERATE_REG_ADD_C10 [7:0] $end
     $var wire 8 #! OPERATE_REG_ADD_C11 [7:0] $end
     $var wire 8 $! OPERATE_REG_ADD_C12 [7:0] $end
     $var wire 8 %! OPERATE_REG_ADD_C20 [7:0] $end
     $var wire 8 &! OPERATE_REG_ADD_C21 [7:0] $end
     $var wire 8 '! OPERATE_REG_ADD_C22 [7:0] $end
     $var wire 8 (! READ_RESULT_MATC00 [7:0] $end
     $var wire 8 )! READ_RESULT_MATC01 [7:0] $end
     $var wire 8 *! READ_RESULT_MATC02 [7:0] $end
     $var wire 8 +! READ_RESULT_MATC10 [7:0] $end
     $var wire 8 ,! READ_RESULT_MATC11 [7:0] $end
     $var wire 8 -! READ_RESULT_MATC12 [7:0] $end
     $var wire 8 .! READ_RESULT_MATC20 [7:0] $end
     $var wire 8 /! READ_RESULT_MATC21 [7:0] $end
     $var wire 8 0! READ_RESULT_MATC22 [7:0] $end
     $var wire 8 1! READ_ERROR [7:0] $end
     $var wire 8 2! ERROR [7:0] $end
     $var wire 8 F OP_REGS [7:0] $end
     $var wire 8 3! NO_ERROR [7:0] $end
     $var wire 8 k CARRY_OVER_C00 [7:0] $end
     $var wire 8 l CARRY_OVER_C01 [7:0] $end
     $var wire 8 m CARRY_OVER_C02 [7:0] $end
     $var wire 8 n CARRY_OVER_C10 [7:0] $end
     $var wire 8 o CARRY_OVER_C11 [7:0] $end
     $var wire 8 p CARRY_OVER_C12 [7:0] $end
     $var wire 8 q CARRY_OVER_C20 [7:0] $end
     $var wire 8 r CARRY_OVER_C21 [7:0] $end
     $var wire 8 s CARRY_OVER_C22 [7:0] $end
     $var wire 8 ( ERROR_OP_REG [7:0] $end
     $var wire 8 G MatA[0][0] [7:0] $end
     $var wire 8 H MatA[0][1] [7:0] $end
     $var wire 8 I MatA[0][2] [7:0] $end
     $var wire 8 J MatA[1][0] [7:0] $end
     $var wire 8 K MatA[1][1] [7:0] $end
     $var wire 8 L MatA[1][2] [7:0] $end
     $var wire 8 M MatA[2][0] [7:0] $end
     $var wire 8 N MatA[2][1] [7:0] $end
     $var wire 8 O MatA[2][2] [7:0] $end
     $var wire 8 P MatB[0][0] [7:0] $end
     $var wire 8 Q MatB[0][1] [7:0] $end
     $var wire 8 R MatB[0][2] [7:0] $end
     $var wire 8 S MatB[1][0] [7:0] $end
     $var wire 8 T MatB[1][1] [7:0] $end
     $var wire 8 U MatB[1][2] [7:0] $end
     $var wire 8 V MatB[2][0] [7:0] $end
     $var wire 8 W MatB[2][1] [7:0] $end
     $var wire 8 X MatB[2][2] [7:0] $end
     $var wire 8 Y MatC[0][0] [7:0] $end
     $var wire 8 Z MatC[0][1] [7:0] $end
     $var wire 8 [ MatC[0][2] [7:0] $end
     $var wire 8 \ MatC[1][0] [7:0] $end
     $var wire 8 ] MatC[1][1] [7:0] $end
     $var wire 8 ^ MatC[1][2] [7:0] $end
     $var wire 8 _ MatC[2][0] [7:0] $end
     $var wire 8 ` MatC[2][1] [7:0] $end
     $var wire 8 a MatC[2][2] [7:0] $end
     $var wire 9 b Resulting_Mat [8:0] $end
     $var wire 1 c Overfull_Error $end
     $var wire 1 h reset $end
    $upscope $end
   $upscope $end
  $upscope $end
 $upscope $end
$enddefinitions $end


#0
b00000000 #
b00000000 $
b00000000 %
b00000000 &
b00000000 '
b00000000 (
b00000000 )
b00000000 *
b00000000 +
b00000000 ,
b00000000 -
b00000000 .
b00000000 /
b00000000 0
b00000000 1
b00000000 2
b00000000 3
b00000000 4
b00000000 5
b00000000 6
b00000000 7
b00000000 8
b00000000 9
b00000000 :
b00000000 ;
b00000000 <
b00000000 =
b00000000 >
b00000000 ?
b00000000 @
b00000000 A
b00000000 B
b00000000 C
b00000000 D
b00000000 E
b00000000 F
b00000000 G
b00000000 H
b00000000 I
b00000000 J
b00000000 K
b00000000 L
b00000000 M
b00000000 N
b00000000 O
b00000000 P
b00000000 Q
b00000000 R
b00000000 S
b00000000 T
b00000000 U
b00000000 V
b00000000 W
b00000000 X
b00000000 Y
b00000000 Z
b00000000 [
b00000000 \
b00000000 ]
b00000000 ^
b00000000 _
b00000000 `
b00000000 a
b000000000 b
0c
0d
0e
b00000000 f
b00000000 g
1h
b10101010 i
b10111011 j
b00010001 k
b00010010 l
b00010011 m
b00100001 n
b00100010 o
b00100011 p
b00110001 q
b00110010 r
b00110011 s
b01000001 t
b01000010 u
b01000011 v
b01010001 w
b01010010 x
b01010011 y
b01100001 z
b01100010 {
b01100011 |
b11010000 }
b11010001 ~
b11010010 !!
b11010011 "!
b11010100 #!
b11010101 $!
b11010110 %!
b11010111 &!
b11011000 '!
b11100000 (!
b11100001 )!
b11100010 *!
b11100011 +!
b11100100 ,!
b11100101 -!
b11100110 .!
b11100111 /!
b11101000 0!
b11101110 1!
b11111111 2!
b00000000 3!
#1
#3
b00000001 f
#5
b10101010 $
b10101010 F
1d
#10
0d
#13
b00010001 g
#15
b10101010 #
1d
#20
0d
#25
1d
#30
0d
#33
b10111011 g
#35
1d
#40
0d
#45
1d
#50
0d
#53
#55
1d
#60
0d
#65
1d
#70
0d
#75
1d
#80
0d
#83
b00010010 g
#85
1d
#90
0d
#95
1d
#100
0d
#105
1d
#110
0d
#115
1d
#120
0d
#123
b10111011 g
#125
1d
#130
0d
#135
1d
#140
0d
#145
1d
#150
0d
#155
1d
#160
0d
#165
1d
#170
0d
#173
#175
1d
#180
0d
#185
1d
#190
0d
#195
1d
#200
0d
#205
1d
#210
0d
#215
1d
#220
0d
#225
1d
#230
0d
#233
b00010011 g
#235
1d
#240
0d
#245
1d
#250
0d
#255
1d
#260
0d
#265
1d
#270
0d
#275
1d
#280
0d
#285
1d
#290
0d
#295
1d
#300
0d
#303
b10111011 g
#305
1d
#310
0d
#315
1d
#320
0d
#325
1d
#330
0d
#335
1d
#340
0d
#345
1d
#350
0d
#355
1d
#360
0d
#365
1d
#370
0d
#375
1d
#380
0d
#383
#385
1d
#390
0d
#395
1d
#400
0d
#405
1d
#410
0d
#415
1d
#420
0d
#425
1d
#430
0d
#435
1d
#440
0d
#445
1d
#450
0d
#455
1d
#460
0d
#465
1d
#470
0d
#473
b00100001 g
#475
1d
#480
0d
#485
1d
#490
0d
#495
1d
#500
0d
#505
1d
#510
0d
#515
1d
#520
0d
#525
1d
#530
0d
#535
1d
#540
0d
#545
1d
#550
0d
#555
1d
#560
0d
#565
1d
#570
0d
#573
b10111011 g
